---
http_interactions:
- request:
    method: get
    uri: https://api.hubapi.com/engagements/v1/engagements/recent/modified?count=1
    body:
      encoding: US-ASCII
      string: ''
    headers:
      Accept:
      - application/json
      Authorization:
      - Bearer access_token
  response:
    status:
      code: 200
      message: OK
    headers:
      date:
      - Wed, 18 Jul 2018 13:50:24 GMT
      content-type:
      - application/json;charset=utf-8
      content-length:
      - '409'
      connection:
      - close
      set-cookie:
      - __cfduid=d3fcd767aa5bc5a5ecc49acd186c8ba3a1531921824; expires=Thu, 18-Jul-19
        13:50:24 GMT; path=/; domain=.hubapi.com; HttpOnly
      access-control-allow-credentials:
      - 'false'
      access-control-allow-headers:
      - Origin, X-Requested-With, Content-Type, Accept, Accept-Charset, Accept-Encoding,
        X-Override-Internal-Permissions, X-Properties-Source, X-Properties-SourceId,
        X-Properties-Flag, X-Hubspot-User-Id, X-Hubspot-Trace, X-Hubspot-Callee, X-Hubspot-Offset,
        X-Hubspot-No-Trace, X-HubSpot-Request-Source, X-HubSpot-Request-Reason, Subscription-Billing-Auth-Token,
        X-App-CSRF, X-Tools-CSRF, Online-Payment-Signing-UUID, X-Source, X-SourceId
      access-control-allow-methods:
      - GET, OPTIONS, PUT, POST, DELETE, PATCH, HEAD
      vary:
      - Accept-Encoding, User-Agent
      x-trace:
      - 2B6E0E2AB99953E7A2C4F6631ABA6CEFE0111FA7E9000000000000000000
      strict-transport-security:
      - max-age=31536000; includeSubDomains; preload
      expect-ct:
      - max-age=604800, report-uri="https://report-uri.cloudflare.com/cdn-cgi/beacon/expect-ct"
      server:
      - cloudflare
      cf-ray:
      - 43c56acc3c47b859-WAW
    body:
      encoding: UTF-8
      string: '{"results":[{"engagement":{"id":1092079756,"portalId":4738746,"active":true,"createdAt":1531742075720,"lastUpdated":1531742080573,"createdBy":6212350,"modifiedBy":6212350,"ownerId":32921899,"type":"TASK","timestamp":1531778400000},"associations":{"contactIds":[],"companyIds":[],"dealIds":[],"ownerIds":[],"workflowIds":[],"ticketIds":[],"contentIds":[]},"attachments":[],"scheduledTasks":[{"engagementId":1092079756,"portalId":4738746,"engagementType":"TASK","taskType":"REMINDER","timestamp":1531807200000,"uuid":"TASK:232b3235-fb4c-4b0c-8f02-eacc8b25c4f4"}],"metadata":{"status":"COMPLETED","subject":"mailcompleted","taskType":"EMAIL","reminders":[1531807200000]}}],"hasMore":true,"offset":1,"total":2}'
    http_version: 
  recorded_at: Wed, 18 Jul 2018 13:50:24 GMT
- request:
    method: get
    uri: https://api.hubapi.com/engagements/v1/engagements/recent/modified?count=1&offset=1
    body:
      encoding: US-ASCII
      string: ''
    headers:
      Accept:
      - application/json
      Authorization:
      - Bearer access_token
  response:
    status:
      code: 200
      message: OK
    headers:
      date:
      - Wed, 18 Jul 2018 13:50:25 GMT
      content-type:
      - application/json;charset=utf-8
      content-length:
      - '411'
      connection:
      - close
      set-cookie:
      - __cfduid=d82d7849139357c811a83ef0658bb09a21531921824; expires=Thu, 18-Jul-19
        13:50:24 GMT; path=/; domain=.hubapi.com; HttpOnly
      access-control-allow-credentials:
      - 'false'
      access-control-allow-headers:
      - Origin, X-Requested-With, Content-Type, Accept, Accept-Charset, Accept-Encoding,
        X-Override-Internal-Permissions, X-Properties-Source, X-Properties-SourceId,
        X-Properties-Flag, X-Hubspot-User-Id, X-Hubspot-Trace, X-Hubspot-Callee, X-Hubspot-Offset,
        X-Hubspot-No-Trace, X-HubSpot-Request-Source, X-HubSpot-Request-Reason, Subscription-Billing-Auth-Token,
        X-App-CSRF, X-Tools-CSRF, Online-Payment-Signing-UUID, X-Source, X-SourceId
      access-control-allow-methods:
      - GET, OPTIONS, PUT, POST, DELETE, PATCH, HEAD
      vary:
      - Accept-Encoding, User-Agent
      x-trace:
      - 2B00739F17AFBE1EDD14CE8253A070B0AE6D47B172000000000000000000
      strict-transport-security:
      - max-age=31536000; includeSubDomains; preload
      expect-ct:
      - max-age=604800, report-uri="https://report-uri.cloudflare.com/cdn-cgi/beacon/expect-ct"
      server:
      - cloudflare
      cf-ray:
      - 43c56acd79a72abb-WAW
    body:
      encoding: UTF-8
      string: '{"results":[{"engagement":{"id":1092032676,"portalId":4738746,"active":true,"createdAt":1531741760764,"lastUpdated":1531741760764,"createdBy":6212350,"modifiedBy":6212350,"ownerId":32921899,"type":"TASK","timestamp":1531778400000},"associations":{"contactIds":[],"companyIds":[],"dealIds":[],"ownerIds":[],"workflowIds":[],"ticketIds":[],"contentIds":[]},"attachments":[],"scheduledTasks":[{"engagementId":1092032676,"portalId":4738746,"engagementType":"TASK","taskType":"REMINDER","timestamp":1531807200000,"uuid":"TASK:b90ec6f0-d785-4834-8c25-b5123578a77f"}],"metadata":{"status":"NOT_STARTED","subject":"calllme","taskType":"CALL","reminders":[1531807200000]}}],"hasMore":false,"offset":2,"total":2}'
    http_version: 
  recorded_at: Wed, 18 Jul 2018 13:50:25 GMT
recorded_with: VCR 4.0.0
